6 Island Biogeography | Lab Manual Conservation Biology Fall 2020
…
raw_counts

## # A tibble: 400 x 10
##    ISLAND SPECIES COUNT RUN_TIME HABITAT DISTANCE  SIZE TAXON MIGRAT_RATE
##    <chr>  <chr>   <dbl>    <dbl> <chr>      <dbl> <dbl> <chr>       <dbl>
##  1 Shann~ sp01        0      200 tropic~      110   128 Arth~           2
##  2 Shann~ sp02        2      200 tropic~      110   128 Arth~           2
##  3 Shann~ sp03        0      200 tropic~      110   128 Arth~           2
##  4 Shann~ sp04        0      200 tropic~      110   128 Arth~           2
##  5 Shann~ sp05        0      200 tropic~      110   128 Arth~           2
##  6 Shann~ sp06        0      200 tropic~      110   128 Arth~           2
##  7 Shann~ sp07        0      200 tropic~      110   128 Arth~           2
##  8 Shann~ sp08        1      200 tropic~      110   128 Arth~           2
##  9 Shann~ sp09        0      200 tropic~      110   128 Arth~           2
## 10 Shann~ sp10        1      200 tropic~      110   128 Arth~           2
## # ... with 390 more rows, and 1 more variable: MORTALITY <dbl>
…
What dplyr verbs can you use to quickly calculate the number of observed species per island for each taxonomic group in each habitat?

► Solution

Exactly, to do this we can use filter() to remove entries where no individuals of a given species were observed (COUNT would be 0), and group our observations by ISLAND, TAXON, and HABITAT. Now we use summarize count the number of observations in each group66 It’s not important how many individuals of a species were observed - just that they were observed..

richn <- raw_counts %>%
  filter(COUNT > 0) %>%
  group_by(ISLAND, TAXON, HABITAT) %>%
  summarize(richn = n(), .groups = "drop")

richn

## # A tibble: 40 x 4
##    ISLAND        TAXON      HABITAT     richn
##    <chr>         <chr>      <chr>       <int>
##  1 Isle of Leary Arthropods desert          9
##  2 Isle of Leary Arthropods subtropical     9
##  3 Isle of Leary Arthropods temperate       7
##  4 Isle of Leary Arthropods tropical        9
##  5 Isle of Leary Arthropods tundra          8
##  6 Isle of Leary Birds      desert          8
##  7 Isle of Leary Birds      subtropical     8
##  8 Isle of Leary Birds      temperate       8
##  9 Isle of Leary Birds      tropical        7
## 10 Isle of Leary Birds      tundra          7
## # ... with 30 more rows
…
