6 Species Diversity & Island Biogeography | Lab Manual Conservation Biology Fall 2020
…
Species richness is a straightforward way to measure the number of species at a given site as the number of species present (more precisely present in the sample).

Let’s calculate species richness across

tidy

richn <- raw_counts %>%
  filter(COUNT > 0) %>%
  group_by(ISLAND, TAXON, HABITAT) %>%
  summarize(n = n(), .groups = "drop")

richn

## # A tibble: 40 x 4
##    ISLAND TAXON      HABITAT         n
##    <chr>  <chr>      <chr>       <int>
##  1 SOL-01 Arthropods desert          3
##  2 SOL-01 Arthropods subtropical     6
##  3 SOL-01 Arthropods temperate       5
##  4 SOL-01 Arthropods tropical        3
##  5 SOL-01 Arthropods tundra          2
##  6 SOL-01 Birds      desert          2
##  7 SOL-01 Birds      subtropical     3
##  8 SOL-01 Birds      temperate       2
##  9 SOL-01 Birds      tropical        5
## 10 SOL-01 Birds      tundra          1
## # ... with 30 more rows
…
