3 Welcome to the tidyverse | Lab Manual Conservation Biology Fall 2020
…
A quick way to check dimensions of your data frame is:

# load libraries
dim(catch)

## [1] 2325   11

The first number is the number of rows, the second the number of columns.

You can get additional information on the object by just typing the object name.

catch

## # A tibble: 2,325 x 11
##    Site     Species    Sex   PCL      FL   STL Hook_Size   Set   Day Month  Year
##    <chr>    <chr>      <chr> <lgl> <dbl> <dbl>     <dbl> <dbl> <dbl> <dbl> <dbl>
##  1 Aransas~ Bagre_mar~ U     NA      287   353        10     1    28     7  2015
##  2 Aransas~ Bagre_mar~ U     NA      425   495        10     1    28     7  2015
##  3 Aransas~ Bagre_mar~ U     NA      416   502        15     1    28     7  2015
##  4 Aransas~ Bagre_mar~ U     NA      416   507        10     1    28     7  2015
##  5 Aransas~ Bagre_mar~ U     NA      418   510        15     1    28     7  2015
##  6 Aransas~ Bagre_mar~ U     NA      434   515        10     1    28     7  2015
##  7 Aransas~ Bagre_mar~ U     NA      427   520        15     1    28     7  2015
##  8 Aransas~ Bagre_mar~ U     NA      446   532        10     1    28     7  2015
##  9 Aransas~ Bagre_mar~ U     NA      465   538        10     1    28     7  2015
## 10 Aransas~ Bagre_mar~ U     NA      450   539        10     1    28     7  2015
## # ... with 2,315 more rows
…
3.2 Select

Title this section as # Select.

⊕We will make heavy use of the magrittr pipe %>% this allows you to link commands together; think of it as “and now do this”.

The function select() is used to select a subset of columns from a data set.

For example, you can select just the Site and Species columns.

catch %>%
  select(Site, Species)

## # A tibble: 2,325 x 2
##    Site        Species      
##    <chr>       <chr>        
##  1 Aransas_Bay Bagre_marinus
##  2 Aransas_Bay Bagre_marinus
##  3 Aransas_Bay Bagre_marinus
##  4 Aransas_Bay Bagre_marinus
##  5 Aransas_Bay Bagre_marinus
##  6 Aransas_Bay Bagre_marinus
##  7 Aransas_Bay Bagre_marinus
##  8 Aransas_Bay Bagre_marinus
##  9 Aransas_Bay Bagre_marinus
## 10 Aransas_Bay Bagre_marinus
## # ... with 2,315 more rows

► Question 3.2

How would you select just Day, Month, and Year columns?

You PCL column doesn’t contain any information (all NAs) - you can also eliminate individual columns by name.

catch %>%
  select(-PCL)

## # A tibble: 2,325 x 10
##    Site        Species       Sex      FL   STL Hook_Size   Set   Day Month  Year
##    <chr>       <chr>         <chr> <dbl> <dbl>     <dbl> <dbl> <dbl> <dbl> <dbl>
##  1 Aransas_Bay Bagre_marinus U       287   353        10     1    28     7  2015
##  2 Aransas_Bay Bagre_marinus U       425   495        10     1    28     7  2015
##  3 Aransas_Bay Bagre_marinus U       416   502        15     1    28     7  2015
##  4 Aransas_Bay Bagre_marinus U       416   507        10     1    28     7  2015
##  5 Aransas_Bay Bagre_marinus U       418   510        15     1    28     7  2015
##  6 Aransas_Bay Bagre_marinus U       434   515        10     1    28     7  2015
##  7 Aransas_Bay Bagre_marinus U       427   520        15     1    28     7  2015
##  8 Aransas_Bay Bagre_marinus U       446   532        10     1    28     7  2015
##  9 Aransas_Bay Bagre_marinus U       465   538        10     1    28     7  2015
## 10 Aransas_Bay Bagre_marinus U       450   539        10     1    28     7  2015
## # ... with 2,315 more rows

► Question 3.3

How would you eliminate hook size from the data set?

You can also eliminate multiple columns by name, for example you would remove Day, Month and Year like this:

catch %>%
  select(-Day, -Month, -Year)

## # A tibble: 2,325 x 8
##    Site        Species       Sex   PCL      FL   STL Hook_Size   Set
##    <chr>       <chr>         <chr> <lgl> <dbl> <dbl>     <dbl> <dbl>
##  1 Aransas_Bay Bagre_marinus U     NA      287   353        10     1
##  2 Aransas_Bay Bagre_marinus U     NA      425   495        10     1
##  3 Aransas_Bay Bagre_marinus U     NA      416   502        15     1
##  4 Aransas_Bay Bagre_marinus U     NA      416   507        10     1
##  5 Aransas_Bay Bagre_marinus U     NA      418   510        15     1
##  6 Aransas_Bay Bagre_marinus U     NA      434   515        10     1
##  7 Aransas_Bay Bagre_marinus U     NA      427   520        15     1
##  8 Aransas_Bay Bagre_marinus U     NA      446   532        10     1
##  9 Aransas_Bay Bagre_marinus U     NA      465   538        10     1
## 10 Aransas_Bay Bagre_marinus U     NA      450   539        10     1
## # ... with 2,315 more rows

If you want to re-arrange columns in your data frame, you would also use select().

catch %>%
  select(FL, Sex, Day)

## # A tibble: 2,325 x 3
##       FL Sex     Day
##    <dbl> <chr> <dbl>
##  1   287 U        28
##  2   425 U        28
##  3   416 U        28
##  4   416 U        28
##  5   418 U        28
##  6   434 U        28
##  7   427 U        28
##  8   446 U        28
##  9   465 U        28
## 10   450 U        28
## # ... with 2,315 more rows

If you wanted to move a set of columns to the front, but not have to type in all the other column names you can use everything().

catch %>%
  select(Day, Month, Year, everything())

## # A tibble: 2,325 x 11
##      Day Month  Year Site     Species    Sex   PCL      FL   STL Hook_Size   Set
##    <dbl> <dbl> <dbl> <chr>    <chr>      <chr> <lgl> <dbl> <dbl>     <dbl> <dbl>
##  1    28     7  2015 Aransas~ Bagre_mar~ U     NA      287   353        10     1
##  2    28     7  2015 Aransas~ Bagre_mar~ U     NA      425   495        10     1
##  3    28     7  2015 Aransas~ Bagre_mar~ U     NA      416   502        15     1
##  4    28     7  2015 Aransas~ Bagre_mar~ U     NA      416   507        10     1
##  5    28     7  2015 Aransas~ Bagre_mar~ U     NA      418   510        15     1
##  6    28     7  2015 Aransas~ Bagre_mar~ U     NA      434   515        10     1
##  7    28     7  2015 Aransas~ Bagre_mar~ U     NA      427   520        15     1
##  8    28     7  2015 Aransas~ Bagre_mar~ U     NA      446   532        10     1
##  9    28     7  2015 Aransas~ Bagre_mar~ U     NA      465   538        10     1
## 10    28     7  2015 Aransas~ Bagre_mar~ U     NA      450   539        10     1
## # ... with 2,315 more rows

There you go. Simple as that.

3.3 Filter

Title this section as # Filter in your Rmarkdown.

The function filter() is used to subset a data frame by row. We do this using regular expressions that describe the content of sets of rows.

For example, we might only want Gafftop sail catfish (Bagre marinus).

catch %>%
  filter(Species == "Bagre_marinus")

## # A tibble: 1,511 x 11
##    Site     Species    Sex   PCL      FL   STL Hook_Size   Set   Day Month  Year
##    <chr>    <chr>      <chr> <lgl> <dbl> <dbl>     <dbl> <dbl> <dbl> <dbl> <dbl>
##  1 Aransas~ Bagre_mar~ U     NA      287   353        10     1    28     7  2015
##  2 Aransas~ Bagre_mar~ U     NA      425   495        10     1    28     7  2015
##  3 Aransas~ Bagre_mar~ U     NA      416   502        15     1    28     7  2015
##  4 Aransas~ Bagre_mar~ U     NA      416   507        10     1    28     7  2015
##  5 Aransas~ Bagre_mar~ U     NA      418   510        15     1    28     7  2015
##  6 Aransas~ Bagre_mar~ U     NA      434   515        10     1    28     7  2015
##  7 Aransas~ Bagre_mar~ U     NA      427   520        15     1    28     7  2015
##  8 Aransas~ Bagre_mar~ U     NA      446   532        10     1    28     7  2015
##  9 Aransas~ Bagre_mar~ U     NA      465   538        10     1    28     7  2015
## 10 Aransas~ Bagre_mar~ U     NA      450   539        10     1    28     7  2015
## # ... with 1,501 more rows

► Question 3.4

How would you select only rows containing Scalloped Hammerheads (Sphyrna lewini)?

33 Note: you need to use == (not = if you are looking for an exact match).

If want all rows but Gafftop sailfish you can use a ! to say “not that”.

catch %>%
  filter(!Species == "Bagre_marinus")

## # A tibble: 814 x 11
##    Site     Species    Sex   PCL      FL   STL Hook_Size   Set   Day Month  Year
##    <chr>    <chr>      <chr> <lgl> <dbl> <dbl>     <dbl> <dbl> <dbl> <dbl> <dbl>
##  1 Redfish~ Rhizoprio~ M     NA      378   433        15     1    29     7  2015
##  2 Redfish~ Sphyrna_t~ F     NA      430   600        10     3    29     7  2015
##  3 Redfish~ Hypanus_a~ F     NA       NA   670        15     3    29     7  2015
##  4 Redfish~ Hypanus_s~ F     NA       NA   340        10     3    29     7  2015
##  5 Redfish~ Hypanus_a~ M     NA       NA   810        10     4    29     7  2015
##  6 Corpus_~ Carcharhi~ F     NA      670   820        15     1    30     7  2015
##  7 Corpus_~ Sphyrna_t~ M     NA      485   615        10     2    24     8  2015
##  8 Corpus_~ Sphyrna_t~ F     NA      370   720        10     2    24     8  2015
##  9 Corpus_~ Sphyrna_t~ M     NA      505   645        10     3    24     8  2015
## 10 Corpus_~ Sphyrna_t~ F     NA      565   720        10     3    24     8  2015
## # ... with 804 more rows

► Question 3.5

How would you create a dataframe without Scalloped Hammerheads (Sphyrna lewini) entries?

Sometimes you might want to select rows that match a set of values44 The function c() (concatenate) creates what is called a vector of values.

catch %>%
  filter(Species %in% c("Sciades_felis", "Bagre_marinus", "Synodus_foetens"))

## # A tibble: 2,166 x 11
##    Site     Species    Sex   PCL      FL   STL Hook_Size   Set   Day Month  Year
##    <chr>    <chr>      <chr> <lgl> <dbl> <dbl>     <dbl> <dbl> <dbl> <dbl> <dbl>
##  1 Aransas~ Bagre_mar~ U     NA      287   353        10     1    28     7  2015
##  2 Aransas~ Bagre_mar~ U     NA      425   495        10     1    28     7  2015
##  3 Aransas~ Bagre_mar~ U     NA      416   502        15     1    28     7  2015
##  4 Aransas~ Bagre_mar~ U     NA      416   507        10     1    28     7  2015
##  5 Aransas~ Bagre_mar~ U     NA      418   510        15     1    28     7  2015
##  6 Aransas~ Bagre_mar~ U     NA      434   515        10     1    28     7  2015
##  7 Aransas~ Bagre_mar~ U     NA      427   520        15     1    28     7  2015
##  8 Aransas~ Bagre_mar~ U     NA      446   532        10     1    28     7  2015
##  9 Aransas~ Bagre_mar~ U     NA      465   538        10     1    28     7  2015
## 10 Aransas~ Bagre_mar~ U     NA      450   539        10     1    28     7  2015
## # ... with 2,156 more rows

Again, if you wanted everything but rows containing those values you would preface it with a !.

catch %>%
  filter(!Species %in% c("Sciades_felis", "Bagre_marinus", "Synodus_foetens"))

## # A tibble: 159 x 11
##    Site     Species    Sex   PCL      FL   STL Hook_Size   Set   Day Month  Year
##    <chr>    <chr>      <chr> <lgl> <dbl> <dbl>     <dbl> <dbl> <dbl> <dbl> <dbl>
##  1 Redfish~ Rhizoprio~ M     NA      378   433        15     1    29     7  2015
##  2 Redfish~ Sphyrna_t~ F     NA      430   600        10     3    29     7  2015
##  3 Redfish~ Hypanus_a~ F     NA       NA   670        15     3    29     7  2015
##  4 Redfish~ Hypanus_s~ F     NA       NA   340        10     3    29     7  2015
##  5 Redfish~ Hypanus_a~ M     NA       NA   810        10     4    29     7  2015
##  6 Corpus_~ Carcharhi~ F     NA      670   820        15     1    30     7  2015
##  7 Corpus_~ Sphyrna_t~ M     NA      485   615        10     2    24     8  2015
##  8 Corpus_~ Sphyrna_t~ F     NA      370   720        10     2    24     8  2015
##  9 Corpus_~ Sphyrna_t~ M     NA      505   645        10     3    24     8  2015
## 10 Corpus_~ Sphyrna_t~ F     NA      565   720        10     3    24     8  2015
## # ... with 149 more rows

► Question 3.6

How would you subset a data frame to contain only entries for different species in the genus Charcharhinus aka the sharky-sharks? There are four species in the data set - Carcharhinus_leucas, Carcharhinus_brevipinna, Carcharhinus_limbatus, Carcharhinus_porosus.

For numbers you can select all rows with values greater than a certain value using >.

catch %>%
  filter(FL > 440)

## # A tibble: 907 x 11
##    Site     Species    Sex   PCL      FL   STL Hook_Size   Set   Day Month  Year
##    <chr>    <chr>      <chr> <lgl> <dbl> <dbl>     <dbl> <dbl> <dbl> <dbl> <dbl>
##  1 Aransas~ Bagre_mar~ U     NA      446   532        10     1    28     7  2015
##  2 Aransas~ Bagre_mar~ U     NA      465   538        10     1    28     7  2015
##  3 Aransas~ Bagre_mar~ U     NA      450   539        10     1    28     7  2015
##  4 Aransas~ Bagre_mar~ U     NA      496   565        10     1    28     7  2015
##  5 Aransas~ Bagre_mar~ U     NA      476   569        10     1    28     7  2015
##  6 Aransas~ Bagre_mar~ U     NA      495   570        10     1    28     7  2015
##  7 Aransas~ Bagre_mar~ U     NA      490   575        10     1    28     7  2015
##  8 Aransas~ Bagre_mar~ U     NA      486   581        10     1    28     7  2015
##  9 Aransas~ Bagre_mar~ U     NA      503   589        10     1    28     7  2015
## 10 Aransas~ Bagre_mar~ U     NA      489   590        10     1    28     7  2015
## # ... with 897 more rows
…
## # A tibble: 1 x 11
##   Site       Species   Sex   PCL      FL   STL Hook_Size   Set   Day Month  Year
##   <chr>      <chr>     <chr> <lgl> <dbl> <dbl>     <dbl> <dbl> <dbl> <dbl> <dbl>
## 1 Corpus_Ch~ Sphyrna_~ F     NA      210   280        15     3     6     7  2017

► Question 3.8

How would you subset a data frame to contain only entries for different species in the genus Charcharhinus that have a forklength larger than 500 cm?

Instead of entries having to fulfill two (or more) requirements, you might have a situation where you only want to retain rows that fulfill one or another argument. For example, if you wanted all entries that are either gafftops or a fork length smaller than 300 cm you could use the following code55 When you are combining arguments you use & to say “it must fulfill this AND this” or | (called the pipe) to say "it must fulfull this OR that.:

catch %>%
  filter(Species == "Sphyrna_lewini" | FL < 300)

## # A tibble: 409 x 11
##    Site       Species  Sex   PCL      FL   STL Hook_Size   Set   Day Month  Year
##    <chr>      <chr>    <chr> <lgl> <dbl> <dbl>     <dbl> <dbl> <dbl> <dbl> <dbl>
##  1 Aransas_B~ Bagre_m~ U     NA      287   353        10     1    28     7  2015
##  2 Aransas_B~ Bagre_m~ U     NA      285   314        10     2    28     7  2015
##  3 Corpus_Ch~ Bagre_m~ U     NA      299   348        10     1    30     7  2015
##  4 Corpus_Ch~ Bagre_m~ U     NA      297   367        10     2    30     7  2015
##  5 Corpus_Ch~ Bagre_m~ U     NA      298   362        10     3    30     7  2015
##  6 Corpus_Ch~ Bagre_m~ U     NA      290   350        10     2    24     8  2015
##  7 Redfish_B~ Bagre_m~ U     NA      254   284        10     4     8     9  2015
##  8 Aransas_B~ Bagre_m~ U     NA       50   574        10     1    25     5  2016
##  9 Aransas_B~ Bagre_m~ U     NA      280   340         3     3    25     5  2016
## 10 Redfish_B~ Bagre_m~ U     NA      294   353        10     4    16     6  2016
## # ... with 399 more rows
…
Okay, now we can select subsets of columns and rows - what if we want to add columns or change data?

3.4 Mutate

The function mutate() can be used to create new columns (usually based on columns already existing in the data frame) - this is a very powerful function with endless possibilities, we are going to stick to some of the basics66 Rest assured if your answer is “Oh, could I …” the answer is “Yes”..

Start a new section in your markdown using # Mutate.

Let’s say you wanted create a column that contained the difference between the fork length and the stretch total length:

catch %>%
  mutate(difference = STL - FL)

## # A tibble: 2,325 x 12
##    Site  Species Sex   PCL      FL   STL Hook_Size   Set   Day Month  Year
##    <chr> <chr>   <chr> <lgl> <dbl> <dbl>     <dbl> <dbl> <dbl> <dbl> <dbl>
##  1 Aran~ Bagre_~ U     NA      287   353        10     1    28     7  2015
##  2 Aran~ Bagre_~ U     NA      425   495        10     1    28     7  2015
##  3 Aran~ Bagre_~ U     NA      416   502        15     1    28     7  2015
##  4 Aran~ Bagre_~ U     NA      416   507        10     1    28     7  2015
##  5 Aran~ Bagre_~ U     NA      418   510        15     1    28     7  2015
##  6 Aran~ Bagre_~ U     NA      434   515        10     1    28     7  2015
##  7 Aran~ Bagre_~ U     NA      427   520        15     1    28     7  2015
##  8 Aran~ Bagre_~ U     NA      446   532        10     1    28     7  2015
##  9 Aran~ Bagre_~ U     NA      465   538        10     1    28     7  2015
## 10 Aran~ Bagre_~ U     NA      450   539        10     1    28     7  2015
## # ... with 2,315 more rows, and 1 more variable: difference <dbl>

You should now have a column called difference at the end of the data frame77 Instead of - you can use + to add , * to multiple, and / to divide values when creating a new column..

► Question 3.11

How would you create a new column called ratio, that is the ratio of the fork to stretch total length?

You can also create a column that contains a logical value (TRUE/FALSE). For example we might need a column that indicates if the Sex is unknown.

catch %>%
  mutate(unknown_sex = Sex == "U")

## # A tibble: 2,325 x 12
##    Site  Species Sex   PCL      FL   STL Hook_Size   Set   Day Month  Year
##    <chr> <chr>   <chr> <lgl> <dbl> <dbl>     <dbl> <dbl> <dbl> <dbl> <dbl>
##  1 Aran~ Bagre_~ U     NA      287   353        10     1    28     7  2015
##  2 Aran~ Bagre_~ U     NA      425   495        10     1    28     7  2015
##  3 Aran~ Bagre_~ U     NA      416   502        15     1    28     7  2015
##  4 Aran~ Bagre_~ U     NA      416   507        10     1    28     7  2015
##  5 Aran~ Bagre_~ U     NA      418   510        15     1    28     7  2015
##  6 Aran~ Bagre_~ U     NA      434   515        10     1    28     7  2015
##  7 Aran~ Bagre_~ U     NA      427   520        15     1    28     7  2015
##  8 Aran~ Bagre_~ U     NA      446   532        10     1    28     7  2015
##  9 Aran~ Bagre_~ U     NA      465   538        10     1    28     7  2015
## 10 Aran~ Bagre_~ U     NA      450   539        10     1    28     7  2015
## # ... with 2,315 more rows, and 1 more variable: unknown_sex <lgl>
…
